[

    {
        "title" : "Metro",
        "id"    : "1",
        "timetable" :
            [
                { "time" : "10:00", "id" : "1" } ,
                { "time" : "11:00", "id" : "2" } ,
                { "time" : "12:00", "id" : "3" } ,
                { "time" : "13:00", "id" : "4" }
            ]
    },

    {
        "title" : "Technopolis",
        "id"    : "2",
        "timetable" :
            [
                { "time" : "21:30", "id" : "1" } ,
                { "time" : "22:30", "id" : "2" } ,
                { "time" : "23:30", "id" : "3" } ,
                { "time" : "00:30", "id" : "4" }
            ]
    }

]
